Tarea02/ondas.vcd
$date
	Mon May  6 19:02:33 2024
$end
$version
	Icarus Verilog
$end
$timescale
	10ms
$end
$scope module BUF $end
$var wire 1 ! A $end
$var wire 1 " Y $end
$upscope $end
$scope module DFF $end
$var wire 1 # C $end
$var wire 1 $ D $end
$var reg 1 % Q $end
$upscope $end
$scope module testbench $end
$var wire 1 & wrongPinAlarm $end
$var wire 1 ' sensorB $end
$var wire 1 ( sensorA $end
$var wire 8 ) pass [7:0] $end
$var wire 1 * gateState $end
$var wire 1 + clk $end
$var wire 1 , blockAlarm $end
$scope module Uutmain $end
$var wire 1 & wrongPinAlarm $end
$var wire 1 ' sensorB $end
$var wire 1 ( sensorA $end
$var wire 8 - pass [7:0] $end
$var wire 6 . nextState [5:0] $end
$var wire 3 / nextGstate [2:0] $end
$var wire 1 * gateState $end
$var wire 1 + clk $end
$var wire 1 , blockAlarm $end
$var wire 1 0 _077_ $end
$var wire 1 1 _076_ $end
$var wire 1 2 _075_ $end
$var wire 1 3 _074_ $end
$var wire 1 4 _073_ $end
$var wire 1 5 _072_ $end
$var wire 1 6 _071_ $end
$var wire 1 7 _070_ $end
$var wire 1 8 _069_ $end
$var wire 1 9 _068_ $end
$var wire 1 : _067_ $end
$var wire 1 ; _066_ $end
$var wire 1 < _065_ $end
$var wire 1 = _064_ $end
$var wire 1 > _063_ $end
$var wire 1 ? _062_ $end
$var wire 1 @ _061_ $end
$var wire 1 A _060_ $end
$var wire 1 B _059_ $end
$var wire 1 C _058_ $end
$var wire 1 D _057_ $end
$var wire 1 E _056_ $end
$var wire 1 F _055_ $end
$var wire 1 G _054_ $end
$var wire 1 H _053_ $end
$var wire 1 I _052_ $end
$var wire 1 J _051_ $end
$var wire 1 K _050_ $end
$var wire 1 L _049_ $end
$var wire 1 M _048_ $end
$var wire 1 N _047_ $end
$var wire 1 O _046_ $end
$var wire 1 P _045_ $end
$var wire 1 Q _044_ $end
$var wire 1 R _043_ $end
$var wire 1 S _042_ $end
$var wire 1 T _041_ $end
$var wire 1 U _040_ $end
$var wire 1 V _039_ $end
$var wire 1 W _038_ $end
$var wire 1 X _037_ $end
$var wire 1 Y _036_ $end
$var wire 1 Z _035_ $end
$var wire 1 [ _034_ $end
$var wire 1 \ _033_ $end
$var wire 1 ] _032_ $end
$var wire 1 ^ _031_ $end
$var wire 1 _ _030_ $end
$var wire 1 ` _029_ $end
$var wire 1 a _028_ $end
$var wire 1 b _027_ $end
$var wire 1 c _026_ $end
$var wire 1 d _025_ $end
$var wire 1 e _024_ $end
$var wire 1 f _023_ $end
$var wire 1 g _022_ $end
$var wire 1 h _021_ $end
$var wire 1 i _020_ $end
$var wire 1 j _019_ $end
$var wire 1 k _018_ $end
$var wire 1 l _017_ $end
$var wire 1 m _016_ $end
$var wire 1 n _015_ $end
$var wire 1 o _014_ $end
$var wire 1 p _013_ $end
$var wire 1 q _012_ $end
$var wire 1 r _011_ $end
$var wire 1 s _010_ $end
$var wire 1 t _009_ $end
$var wire 1 u _008_ $end
$var wire 1 v _007_ $end
$var wire 1 w _006_ $end
$var wire 1 x _005_ $end
$var wire 1 y _004_ $end
$var wire 1 z _003_ $end
$var wire 1 { _002_ $end
$var wire 1 | _001_ $end
$var wire 1 } _000_ $end
$var reg 3 ~ gstate [2:0] $end
$var reg 6 !" state [5:0] $end
$scope module _078_ $end
$var wire 1 "" A $end
$var wire 1 r Y $end
$upscope $end
$scope module _079_ $end
$var wire 1 #" A $end
$var wire 1 q Y $end
$upscope $end
$scope module _080_ $end
$var wire 1 $" A $end
$var wire 1 p Y $end
$upscope $end
$scope module _081_ $end
$var wire 1 %" A $end
$var wire 1 o Y $end
$upscope $end
$scope module _082_ $end
$var wire 1 &" A $end
$var wire 1 n Y $end
$upscope $end
$scope module _083_ $end
$var wire 1 '" A $end
$var wire 1 m Y $end
$upscope $end
$scope module _084_ $end
$var wire 1 (" A $end
$var wire 1 l Y $end
$upscope $end
$scope module _085_ $end
$var wire 1 k Y $end
$var wire 1 ( A $end
$upscope $end
$scope module _086_ $end
$var wire 1 )" A $end
$var wire 1 j Y $end
$upscope $end
$scope module _087_ $end
$var wire 1 *" A $end
$var wire 1 +" B $end
$var wire 1 i Y $end
$upscope $end
$scope module _088_ $end
$var wire 1 q A $end
$var wire 1 p B $end
$var wire 1 h Y $end
$upscope $end
$scope module _089_ $end
$var wire 1 ," A $end
$var wire 1 -" B $end
$var wire 1 g Y $end
$upscope $end
$scope module _090_ $end
$var wire 1 o A $end
$var wire 1 n B $end
$var wire 1 f Y $end
$upscope $end
$scope module _091_ $end
$var wire 1 h A $end
$var wire 1 f B $end
$var wire 1 e Y $end
$upscope $end
$scope module _092_ $end
$var wire 1 ." A $end
$var wire 1 l B $end
$var wire 1 d Y $end
$upscope $end
$scope module _093_ $end
$var wire 1 e A $end
$var wire 1 d B $end
$var wire 1 c Y $end
$upscope $end
$scope module _094_ $end
$var wire 1 c A $end
$var wire 1 b Y $end
$upscope $end
$scope module _095_ $end
$var wire 1 r A $end
$var wire 1 /" B $end
$var wire 1 a Y $end
$upscope $end
$scope module _096_ $end
$var wire 1 0" A $end
$var wire 1 a B $end
$var wire 1 ` Y $end
$upscope $end
$scope module _097_ $end
$var wire 1 c A $end
$var wire 1 ` B $end
$var wire 1 _ Y $end
$upscope $end
$scope module _098_ $end
$var wire 1 1" A $end
$var wire 1 2" B $end
$var wire 1 ^ Y $end
$upscope $end
$scope module _099_ $end
$var wire 1 3" A $end
$var wire 1 ^ B $end
$var wire 1 ] Y $end
$upscope $end
$scope module _100_ $end
$var wire 1 ] A $end
$var wire 1 \ Y $end
$upscope $end
$scope module _101_ $end
$var wire 1 r A $end
$var wire 1 4" B $end
$var wire 1 [ Y $end
$upscope $end
$scope module _102_ $end
$var wire 1 5" A $end
$var wire 1 Z Y $end
$var wire 1 ' B $end
$upscope $end
$scope module _103_ $end
$var wire 1 [ A $end
$var wire 1 Z B $end
$var wire 1 Y Y $end
$upscope $end
$scope module _104_ $end
$var wire 1 ] A $end
$var wire 1 Y B $end
$var wire 1 X Y $end
$upscope $end
$scope module _105_ $end
$var wire 1 X A $end
$var wire 1 W Y $end
$upscope $end
$scope module _106_ $end
$var wire 1 _ A $end
$var wire 1 W B $end
$var wire 1 V Y $end
$upscope $end
$scope module _107_ $end
$var wire 1 k A $end
$var wire 1 \ B $end
$var wire 1 U Y $end
$upscope $end
$scope module _108_ $end
$var wire 1 ] B $end
$var wire 1 T Y $end
$var wire 1 ' A $end
$upscope $end
$scope module _109_ $end
$var wire 1 c A $end
$var wire 1 T B $end
$var wire 1 S Y $end
$upscope $end
$scope module _110_ $end
$var wire 1 U A $end
$var wire 1 S B $end
$var wire 1 R Y $end
$upscope $end
$scope module _111_ $end
$var wire 1 R A $end
$var wire 1 Q Y $end
$upscope $end
$scope module _112_ $end
$var wire 1 V A $end
$var wire 1 Q B $end
$var wire 1 6" Y $end
$upscope $end
$scope module _113_ $end
$var wire 1 k A $end
$var wire 1 ] B $end
$var wire 1 P Y $end
$upscope $end
$scope module _114_ $end
$var wire 1 c B $end
$var wire 1 O Y $end
$var wire 1 ' A $end
$upscope $end
$scope module _115_ $end
$var wire 1 P A $end
$var wire 1 O B $end
$var wire 1 N Y $end
$upscope $end
$scope module _116_ $end
$var wire 1 Y A $end
$var wire 1 N B $end
$var wire 1 7" Y $end
$upscope $end
$scope module _117_ $end
$var wire 1 P B $end
$var wire 1 M Y $end
$var wire 1 ' A $end
$upscope $end
$scope module _118_ $end
$var wire 1 _ A $end
$var wire 1 M B $end
$var wire 1 8" Y $end
$upscope $end
$scope module _119_ $end
$var wire 1 9" A $end
$var wire 1 :" B $end
$var wire 1 L Y $end
$upscope $end
$scope module _120_ $end
$var wire 1 L A $end
$var wire 1 K Y $end
$upscope $end
$scope module _121_ $end
$var wire 1 p A $end
$var wire 1 g B $end
$var wire 1 J Y $end
$upscope $end
$scope module _122_ $end
$var wire 1 ;" A $end
$var wire 1 L B $end
$var wire 1 I Y $end
$upscope $end
$scope module _123_ $end
$var wire 1 J A $end
$var wire 1 I B $end
$var wire 1 H Y $end
$upscope $end
$scope module _124_ $end
$var wire 1 P A $end
$var wire 1 H B $end
$var wire 1 G Y $end
$upscope $end
$scope module _125_ $end
$var wire 1 G A $end
$var wire 1 <" Y $end
$upscope $end
$scope module _126_ $end
$var wire 1 h A $end
$var wire 1 K B $end
$var wire 1 F Y $end
$upscope $end
$scope module _127_ $end
$var wire 1 i A $end
$var wire 1 L B $end
$var wire 1 E Y $end
$upscope $end
$scope module _128_ $end
$var wire 1 o A $end
$var wire 1 =" B $end
$var wire 1 D Y $end
$upscope $end
$scope module _129_ $end
$var wire 1 E A $end
$var wire 1 D B $end
$var wire 1 C Y $end
$upscope $end
$scope module _130_ $end
$var wire 1 m A $end
$var wire 1 >" B $end
$var wire 1 B Y $end
$upscope $end
$scope module _131_ $end
$var wire 1 e A $end
$var wire 1 B B $end
$var wire 1 A Y $end
$upscope $end
$scope module _132_ $end
$var wire 1 A A $end
$var wire 1 @ Y $end
$upscope $end
$scope module _133_ $end
$var wire 1 C A $end
$var wire 1 @ B $end
$var wire 1 ? Y $end
$upscope $end
$scope module _134_ $end
$var wire 1 q A $end
$var wire 1 ?" B $end
$var wire 1 > Y $end
$upscope $end
$scope module _135_ $end
$var wire 1 f A $end
$var wire 1 > B $end
$var wire 1 = Y $end
$upscope $end
$scope module _136_ $end
$var wire 1 L A $end
$var wire 1 = B $end
$var wire 1 < Y $end
$upscope $end
$scope module _137_ $end
$var wire 1 o A $end
$var wire 1 @" B $end
$var wire 1 ; Y $end
$upscope $end
$scope module _138_ $end
$var wire 1 A" A $end
$var wire 1 n B $end
$var wire 1 : Y $end
$upscope $end
$scope module _139_ $end
$var wire 1 E A $end
$var wire 1 : B $end
$var wire 1 9 Y $end
$upscope $end
$scope module _140_ $end
$var wire 1 F A $end
$var wire 1 ; B $end
$var wire 1 8 Y $end
$upscope $end
$scope module _141_ $end
$var wire 1 C A $end
$var wire 1 9 B $end
$var wire 1 7 Y $end
$upscope $end
$scope module _142_ $end
$var wire 1 < A $end
$var wire 1 7 B $end
$var wire 1 6 Y $end
$upscope $end
$scope module _143_ $end
$var wire 1 c A $end
$var wire 1 A B $end
$var wire 1 5 Y $end
$upscope $end
$scope module _144_ $end
$var wire 1 6 A $end
$var wire 1 5 B $end
$var wire 1 4 Y $end
$upscope $end
$scope module _145_ $end
$var wire 1 G A $end
$var wire 1 4 B $end
$var wire 1 3 Y $end
$upscope $end
$scope module _146_ $end
$var wire 1 c A $end
$var wire 1 U B $end
$var wire 1 2 Y $end
$upscope $end
$scope module _147_ $end
$var wire 1 B" A $end
$var wire 1 j B $end
$var wire 1 1 Y $end
$upscope $end
$scope module _148_ $end
$var wire 1 C" A $end
$var wire 1 D" B $end
$var wire 1 0 Y $end
$upscope $end
$scope module _149_ $end
$var wire 1 0 A $end
$var wire 1 } Y $end
$upscope $end
$scope module _150_ $end
$var wire 1 1 A $end
$var wire 1 } B $end
$var wire 1 | Y $end
$upscope $end
$scope module _151_ $end
$var wire 1 E" A $end
$var wire 1 F" B $end
$var wire 1 { Y $end
$upscope $end
$scope module _152_ $end
$var wire 1 G" A $end
$var wire 1 H" B $end
$var wire 1 z Y $end
$upscope $end
$scope module _153_ $end
$var wire 1 { A $end
$var wire 1 z B $end
$var wire 1 y Y $end
$upscope $end
$scope module _154_ $end
$var wire 1 | A $end
$var wire 1 y B $end
$var wire 1 x Y $end
$upscope $end
$scope module _155_ $end
$var wire 1 x A $end
$var wire 1 w Y $end
$upscope $end
$scope module _156_ $end
$var wire 1 A A $end
$var wire 1 w B $end
$var wire 1 v Y $end
$upscope $end
$scope module _157_ $end
$var wire 1 2 A $end
$var wire 1 v B $end
$var wire 1 u Y $end
$upscope $end
$scope module _158_ $end
$var wire 1 3 A $end
$var wire 1 u B $end
$var wire 1 I" Y $end
$upscope $end
$scope module _159_ $end
$var wire 1 < A $end
$var wire 1 x B $end
$var wire 1 J" Y $end
$upscope $end
$scope module _160_ $end
$var wire 1 8 A $end
$var wire 1 x B $end
$var wire 1 K" Y $end
$upscope $end
$scope module _161_ $end
$var wire 1 ? A $end
$var wire 1 x B $end
$var wire 1 L" Y $end
$upscope $end
$scope module _162_ $end
$var wire 1 b A $end
$var wire 1 U B $end
$var wire 1 t Y $end
$upscope $end
$scope module _163_ $end
$var wire 1 6 A $end
$var wire 1 x B $end
$var wire 1 s Y $end
$upscope $end
$scope module _164_ $end
$var wire 1 t A $end
$var wire 1 s B $end
$var wire 1 M" Y $end
$upscope $end
$upscope $end
$scope module source $end
$var wire 1 , blockAlarm $end
$var wire 1 * gateState $end
$var wire 1 & wrongPinAlarm $end
$var reg 1 + clk $end
$var reg 8 N" pass [7:0] $end
$var reg 1 ( sensorA $end
$var reg 1 ' sensorB $end
$upscope $end
$upscope $end
$enddefinitions $end
#0
$dumpvars
b100110 N"
0M"
0L"
0K"
0J"
0I"
0H"
0G"
0F"
0E"
1D"
1C"
0B"
0A"
0@"
0?"
0>"
0="
1<"
1;"
0:"
09"
08"
07"
16"
15"
04"
13"
02"
01"
10"
0/"
0."
0-"
0,"
0+"
1*"
1)"
0("
0'"
0&"
0%"
0$"
1#"
0""
b1 !"
b1 ~
1}
0|
1{
1z
0y
1x
0w
0v
1u
1t
1s
1r
0q
1p
1o
1n
1m
1l
0k
0j
0i
1h
1g
0f
0e
0d
1c
0b
1a
0`
1_
1^
0]
1\
0[
0Z
1Y
1X
0W
1V
1U
1T
0S
1R
0Q
1P
0O
1N
1M
1L
0K
0J
0I
1H
0G
0F
1E
1D
0C
0B
1A
0@
1?
1>
0=
1<
0;
1:
09
18
17
06
05
14
13
02
11
00
b1 /
b10 .
b100110 -
0,
0+
0*
b100110 )
1(
0'
0&
x%
z$
z#
z"
z!
$end
#10
1M"
04
0s
0I"
16
13
0<
b100000 .
0<"
1G
1=
0H
0>
1J
1I
1q
0p
0#"
0*"
0;"
1$"
1+"
1?"
b10 !"
1+
#20
0+
#30
06"
b10 /
17"
0I"
1Q
0R
0N
13
b100000 .
1M"
0t
1S
1O
15
04
1s
1b
0c
06
1e
1<
0=
1d
1K
0h
0J
0L
1i
1>
0l
1p
1("
1:"
1>"
0$"
0+"
0?"
b100000 !"
1+
#40
0+
#50
b10 /
06"
1V
1N
0W
1X
0T
0P
0Y
0\
1[
1]
1Z
0^
0r
00"
03"
05"
1""
11"
1*
b10 ~
1+
#60
0+
#70
1+
#80
0+
#90
1+
#100
0+
#110
1+
#120
0+
#130
1+
#140
0+
#150
1+
#160
0+
#170
1+
#180
0+
#190
1+
#200
0+
#210
1+
#220
0+
#230
1+
#240
0+
#250
1+
#260
0+
#270
1+
#280
0+
#290
1+
#300
0+
#310
1+
#320
0+
#330
1+
#340
0+
#350
1+
#360
0+
#370
1+
#380
0+
#390
1+
#400
0+
#410
1+
#420
0+
#430
1+
#440
0+
#450
1+
#460
0+
#470
1+
#480
0+
#490
1+
#500
1w
0x
1|
0}
01
10
1j
0D"
0C"
0)"
1k
0+
b0 )
b0 -
b0 N"
0(
#510
1+
#520
0+
#530
1+
#540
0+
#550
1+
#560
0+
#570
1+
#580
0+
#590
1+
#600
0+
#610
1+
#620
0+
#630
1+
#640
0+
#650
1+
#660
0+
#670
1+
#680
0+
#690
1+
#700
0+
#710
1+
#720
0+
#730
1+
#740
0+
#750
1+
#760
0+
#770
1+
#780
0+
#790
1+
#800
0+
#810
1+
#820
0+
#830
1+
#840
0+
#850
1+
#860
0+
#870
1+
#880
0+
#890
1+
#900
0+
#910
1+
#920
0+
#930
1+
#940
0+
#950
1+
#960
0+
#970
1+
#980
0+
#990
1+
#1000
0+
#1010
1+
#1020
0+
#1030
1+
#1040
0+
#1050
1+
#1060
0+
#1070
1+
#1080
0+
#1090
1+
#1100
0+
#1110
1+
#1120
0+
#1130
1+
#1140
0+
#1150
1+
#1160
0+
#1170
1+
#1180
0+
#1190
1+
#1200
0+
#1210
1+
#1220
0+
#1230
1+
#1240
0+
#1250
1+
#1260
0+
#1270
1+
#1280
0+
#1290
1+
#1300
0+
#1310
1+
#1320
0+
#1330
1+
#1340
0+
#1350
1+
#1360
0+
#1370
1+
#1380
0+
#1390
1+
#1400
0+
#1410
1+
#1420
0+
#1430
1+
#1440
0+
#1450
1+
#1460
0+
#1470
1+
#1480
0+
#1490
1+
#1500
16"
0V
1W
0X
b1 /
07"
1Y
0O
0Z
0+
1'
#1510
1I"
0u
b1 .
0M"
b1 /
16"
0Q
1R
12
1t
1V
0U
0W
1X
1\
0]
0[
1^
1r
0""
01"
0*
10"
13"
15"
b1 ~
1+
#1520
0+
#1530
03
b1 .
1I"
14
1u
05
02
0b
1H
0e
1c
0I
1h
0d
0K
0i
1L
0q
1l
1#"
1*"
1;"
0("
0:"
0>"
b1 !"
1+
